{
  "iisSettings": {
    "windowsAuthentication": false,
    "anonymousAuthentication": true,
    "iis": {
      "applicationUrl": "http://mynotifyapi.local.com",
      "sslPort": 0
    },
    "iisExpress": {
      "applicationUrl": "http://mynotifyapi.local.com",
      "sslPort": 0
    }
  },
  "profiles": {
    "IIS Express": {
      "commandName": "IIS",
      "launchBrowser": true,
      "launchUrl": "api/applicationerror",
      "environmentVariables": {
        "ASPNETCORE_ENVIRONMENT": "Development"
      }
    },
    "MyNotify": {
      "commandName": "Project",
      "launchBrowser": true,
      "launchUrl": "api/applicationerror",
      "environmentVariables": {
        "ASPNETCORE_ENVIRONMENT": "Development"
      },
      "applicationUrl": "http://localhost:63656/"
    }
  }
}